<?xml version="1.0" encoding="UTF-8" standalone="no"?>
<svg
   xmlns:dc="http://purl.org/dc/elements/1.1/"
   xmlns:cc="http://creativecommons.org/ns#"
   xmlns:rdf="http://www.w3.org/1999/02/22-rdf-syntax-ns#"
   xmlns:svg="http://www.w3.org/2000/svg"
   xmlns="http://www.w3.org/2000/svg"
   xmlns:sodipodi="http://sodipodi.sourceforge.net/DTD/sodipodi-0.dtd"
   xmlns:inkscape="http://www.inkscape.org/namespaces/inkscape"
   width="108.36619mm"
   height="104.58643mm"
   viewBox="0 0 108.36619 104.58643"
   version="1.1"
   id="svg8"
   inkscape:version="1.0.2 (e86c870879, 2021-01-15)"
   sodipodi:docname="wait.svg">
  <defs
     id="defs2" />
  <sodipodi:namedview
     id="base"
     pagecolor="#ffffff"
     bordercolor="#666666"
     borderopacity="1.0"
     inkscape:pageopacity="0.0"
     inkscape:pageshadow="2"
     inkscape:zoom="1.4"
     inkscape:cx="176.92936"
     inkscape:cy="151.92936"
     inkscape:document-units="mm"
     inkscape:current-layer="layer1"
     inkscape:document-rotation="0"
     showgrid="false"
     inkscape:window-width="1280"
     inkscape:window-height="884"
     inkscape:window-x="0"
     inkscape:window-y="0"
     inkscape:window-maximized="1" />
  <metadata
     id="metadata5">
    <rdf:RDF>
      <cc:Work
         rdf:about="">
        <dc:format>image/svg+xml</dc:format>
        <dc:type
           rdf:resource="http://purl.org/dc/dcmitype/StillImage" />
        <dc:title />
      </cc:Work>
    </rdf:RDF>
  </metadata>
  <g
     inkscape:label="Calque 1"
     inkscape:groupmode="layer"
     id="layer1"
     transform="translate(-11.206785,-182.80798)">
    <path
       style="fill:none;stroke:#000000;stroke-width:0.264583px;stroke-linecap:butt;stroke-linejoin:miter;stroke-opacity:1"
       d="M 98.273808,199.57142 H 27.970239"
       id="path851" />
    <path
       style="fill:#3c78e7;fill-opacity:1;stroke:#000000;stroke-width:2.86164;stroke-linejoin:round;stroke-miterlimit:4;stroke-dasharray:none;paint-order:fill markers stroke"
       d="m 227.89493,886.87565 c -1.19521,-67.90718 -66.86689,-88.91553 -113.1459,-131.16136 h 125.48263 c 69.01544,0 131.19691,-1.9305 131.19691,-1.4286 -46.86817,44.20953 -105.3661,66.0456 -104.62582,133.81924 3.2205,66.41197 62.76233,99.0368 102.43371,136.96567 -78.22745,0.041 -157.74358,-0.9224 -226.79392,-0.8487 41.4016,-42.56837 82.83265,-83.67915 85.45239,-137.34625 z"
       id="path853"
       transform="scale(0.26458333)"
       sodipodi:nodetypes="ccsccccc" />
    <rect
       style="fill:#969696;fill-opacity:1;stroke:#000000;stroke-width:0.179449;stroke-linejoin:round;stroke-miterlimit:4;stroke-dasharray:none;paint-order:fill markers stroke"
       id="rect855"
       width="86.28614"
       height="9.2870026"
       x="21.065191"
       y="190.29053" />
    <rect
       style="fill:#969696;fill-opacity:1;stroke:#000000;stroke-width:0.174227;stroke-linejoin:round;stroke-miterlimit:4;stroke-dasharray:none;paint-order:fill markers stroke"
       id="rect859"
       width="82.550568"
       height="9.1506262"
       x="25.023245"
       y="271.15829" />
  </g>
</svg>
